Post Simulation
…
results |> 
  mutate(dt_month= month(date),
         dt_year = year(date)) |> 
  group_by(dt_year, dt_month, where) |> 
  summarise(no2 = mean(no2, na.rm = T)) 

`summarise()` has grouped output by 'dt_year', 'dt_month'. You can override
using the `.groups` argument.

# A tibble: 72 × 4
# Groups:   dt_year, dt_month [36]
   dt_year dt_month where   no2
     <int>    <int> <chr> <dbl>
 1    2019        1 Home   55.0
 2    2019        1 Work   58.0
 3    2019        2 Home   59.8
 4    2019        2 Work   59.4
 5    2019        3 Home   49.9
 6    2019        3 Work   46.2
 7    2019        4 Home   52.8
 8    2019        4 Work   47.9
 9    2019        5 Home   45.9
10    2019        5 Work   42.7
# ℹ 62 more rows
…
results |> 
  group_by(where, road, date = floor_date(date, "month")) %>%
  summarise(no2 = mean(no2, na.rm = TRUE)) |> 
  pivot_wider(names_from = where, values_from = no2) |> 
  mutate(per = Work/Home,
         per1 = if_else(per > 1, per - 1, 1 - per)) 

`summarise()` has grouped output by 'where', 'road'. You can override using the
`.groups` argument.

# A tibble: 72 × 6
# Groups:   road [2]
   road  date        Home  Work   per   per1
   <lgl> <date>     <dbl> <dbl> <dbl>  <dbl>
 1 FALSE 2019-01-01  54.2  56.1 1.04  0.0363
 2 FALSE 2019-02-01  58.9  57.3 0.971 0.0288
 3 FALSE 2019-03-01  49.0  44.3 0.905 0.0947
 4 FALSE 2019-04-01  51.9  46.0 0.885 0.115 
 5 FALSE 2019-05-01  45.2  41.1 0.910 0.0900
 6 FALSE 2019-06-01  38.2  38.6 1.01  0.0115
 7 FALSE 2019-07-01  38.8  40.0 1.03  0.0319
 8 FALSE 2019-08-01  41.3  38.1 0.923 0.0774
 9 FALSE 2019-09-01  41.2  37.9 0.920 0.0797
10 FALSE 2019-10-01  44.8  45.3 1.01  0.0114
# ℹ 62 more rows
…
